# Output TH1F: H_En ()
# BinCenter	Content	BinHalfWidth	Error
0.0604567	7649	0.0103379	87.4586
0.0853973	24430	0.0146027	156.301
0.120627	42825	0.0206269	206.942
0.17039	43339	0.0291362	208.18
0.240682	40637	0.041156	201.586
0.339973	40000	0.0581344	200
0.480224	41917	0.0821171	204.736
0.678335	40940	0.115993	202.336
0.958173	37710	0.163845	194.191
1.35346	32099	0.231437	179.162
1.91181	27338	0.326914	165.342
2.7005	22319	0.461778	149.395
3.81456	18568	0.652279	136.264
5.3882	13978	0.921369	118.229
7.61104	10388	1.30147	101.922
10.7509	8567	1.83837	92.5581
15.186	6322	2.59677	79.511
21.4508	4622	3.66804	67.9853
30.3001	3625	5.18124	60.208
42.8	2497	7.31869	49.97
60.4567	1858	10.3379	43.1045
85.3973	1192	14.6027	34.5254
120.627	779	20.6269	27.9106
170.39	547	29.1362	23.388
