# Output TH1F: H_Imp ()
# BinCenter	Content	BinHalfWidth	Error
2	106	2	10.2956
6	291	2	17.0587
10	451	2	21.2368
14	725	2	26.9258
18	963	2	31.0322
22	1185	2	34.4238
26	1182	2	34.3802
30	1484	2	38.5227
34	1804	2	42.4735
38	1978	2	44.4747
42	2174	2	46.6262
46	2386	2	48.8467
50	2660	2	51.5752
54	2721	2	52.1632
58	2880	2	53.6656
62	3247	2	56.9825
66	3458	2	58.8048
70	3381	2	58.1464
74	3375	2	58.0948
78	3751	2	61.2454
82	3638	2	60.3158
86	3964	2	62.9603
90	4038	2	63.5453
94	4155	2	64.4593
98	4473	2	66.8805
102	4489	2	67
106	4665	2	68.3008
110	4573	2	67.624
114	4975	2	70.5337
118	5032	2	70.9366
122	4885	2	69.8928
126	4757	2	68.971
130	4522	2	67.2458
134	4515	2	67.1937
138	4891	2	69.9357
142	4950	2	70.3562
146	5028	2	70.9084
150	4755	2	68.9565
154	5038	2	70.9789
158	5092	2	71.3583
162	5247	2	72.4362
166	4995	2	70.6753
170	5251	2	72.4638
174	5160	2	71.8331
178	5068	2	71.1899
182	5200	2	72.111
186	4945	2	70.3207
190	5235	2	72.3533
194	5085	2	71.3092
198	5260	2	72.5259
202	5102	2	71.4283
206	5666	2	75.2728
210	5245	2	72.4224
214	5305	2	72.8354
218	5338	2	73.0616
222	5599	2	74.8265
226	5525	2	74.3303
230	5769	2	75.9539
234	5327	2	72.9863
238	5555	2	74.5319
242	5693	2	75.452
246	5887	2	76.7268
250	5543	2	74.4513
254	5413	2	73.5731
258	5540	2	74.4312
262	5957	2	77.1816
266	5576	2	74.6726
270	5845	2	76.4526
274	5366	2	73.253
278	5687	2	75.4122
282	5780	2	76.0263
286	5590	2	74.7663
290	5405	2	73.5187
294	5421	2	73.6274
298	5486	2	74.0675
302	5231	2	72.3257
306	5426	2	73.6614
310	5176	2	71.9444
314	5110	2	71.4843
318	4969	2	70.4911
322	4649	2	68.1836
326	4818	2	69.4118
330	4703	2	68.5784
334	4623	2	67.9926
338	4651	2	68.1982
342	4558	2	67.513
346	4242	2	65.1306
350	4153	2	64.4438
354	4106	2	64.0781
358	4396	2	66.3023
362	4159	2	64.4903
366	4223	2	64.9846
370	4214	2	64.9153
374	4170	2	64.5755
378	4135	2	64.304
382	3936	2	62.7375
386	3969	2	63
390	4032	2	63.498
394	3751	2	61.2454
398	4042	2	63.5767
402	3844	2	62
406	3796	2	61.6117
410	3755	2	61.2781
414	3739	2	61.1474
418	3767	2	61.3759
422	3798	2	61.6279
426	3852	2	62.0645
430	3953	2	62.8729
434	3835	2	61.9274
438	3714	2	60.9426
442	3872	2	62.2254
446	3900	2	62.45
450	3853	2	62.0725
454	3456	2	58.7878
458	3297	2	57.4195
462	3542	2	59.5147
466	3512	2	59.2621
470	3519	2	59.3212
474	3281	2	57.28
478	3439	2	58.643
482	3448	2	58.7197
486	3282	2	57.2887
490	3296	2	57.4108
494	3406	2	58.3609
498	3384	2	58.1722
502	3292	2	57.376
506	3132	2	55.9643
510	3185	2	56.4358
514	3072	2	55.4256
518	2999	2	54.7631
522	2768	2	52.6118
526	2661	2	51.5849
530	2979	2	54.5802
534	2758	2	52.5167
538	2756	2	52.4976
542	2783	2	52.7541
546	2545	2	50.448
550	2975	2	54.5436
554	2853	2	53.4135
558	2845	2	53.3385
562	2719	2	52.144
566	2916	2	54
570	2857	2	53.4509
574	2804	2	52.9528
578	2949	2	54.3047
582	2576	2	50.7543
586	2682	2	51.788
590	2799	2	52.9056
594	2831	2	53.2071
598	2526	2	50.2593
602	2522	2	50.2195
606	2515	2	50.1498
610	2687	2	51.8363
614	2719	2	52.144
618	2529	2	50.2892
622	2926	2	54.0925
626	2871	2	53.5817
630	2556	2	50.5569
634	2564	2	50.636
638	2739	2	52.3355
642	2331	2	48.2804
646	2701	2	51.9711
650	2517	2	50.1697
654	2573	2	50.7247
658	2389	2	48.8774
662	2524	2	50.2394
666	2480	2	49.7996
670	2175	2	46.6369
674	2359	2	48.5695
678	2431	2	49.3052
682	2543	2	50.4282
686	2410	2	49.0918
690	2384	2	48.8262
694	2368	2	48.6621
698	2292	2	47.8748
702	2192	2	46.8188
706	2373	2	48.7134
710	2135	2	46.2061
714	2328	2	48.2494
718	2245	2	47.3814
722	2288	2	47.833
726	2294	2	47.8957
730	2237	2	47.2969
734	2390	2	48.8876
738	2176	2	46.6476
742	2385	2	48.8365
746	2289	2	47.8435
750	2126	2	46.1086
754	2113	2	45.9674
758	2143	2	46.2925
762	2055	2	45.3321
766	2206	2	46.9681
770	2016	2	44.8999
774	2210	2	47.0106
778	2243	2	47.3603
782	2194	2	46.8402
786	2245	2	47.3814
790	2042	2	45.1885
794	2286	2	47.8121
798	1953	2	44.1928
802	2244	2	47.3709
806	2236	2	47.2864
810	2064	2	45.4313
814	2133	2	46.1844
818	2037	2	45.1331
822	1976	2	44.4522
826	1944	2	44.0908
830	1943	2	44.0795
834	2048	2	45.2548
838	1895	2	43.5316
842	1912	2	43.7264
846	1866	2	43.1972
850	2021	2	44.9555
854	1907	2	43.6692
858	1765	2	42.0119
862	1690	2	41.1096
866	1747	2	41.7971
870	1665	2	40.8044
874	1606	2	40.0749
878	1635	2	40.4351
882	1606	2	40.0749
886	1507	2	38.8201
890	1520	2	38.9872
894	1515	2	38.923
898	1445	2	38.0132
902	1468	2	38.3145
906	1427	2	37.7757
910	1424	2	37.7359
914	1468	2	38.3145
918	1367	2	36.973
922	1358	2	36.8511
926	1280	2	35.7771
930	1209	2	34.7707
934	1224	2	34.9857
938	1154	2	33.9706
942	1161	2	34.0735
946	1079	2	32.8481
950	1076	2	32.8024
954	1121	2	33.4813
958	1078	2	32.8329
962	1056	2	32.4962
966	989	2	31.4484
970	906	2	30.0998
974	891	2	29.8496
978	1054	2	32.4654
982	973	2	31.1929
986	939	2	30.6431
990	853	2	29.2062
994	849	2	29.1376
998	825	2	28.7228
1002	721	2	26.8514
1006	831	2	28.8271
1010	843	2	29.0345
1014	864	2	29.3939
1018	740	2	27.2029
1022	746	2	27.313
1026	755	2	27.4773
1030	665	2	25.7876
1034	731	2	27.037
1038	661	2	25.7099
1042	739	2	27.1846
1046	756	2	27.4955
1050	554	2	23.5372
1054	656	2	25.6125
1058	608	2	24.6577
1062	599	2	24.4745
1066	552	2	23.4947
1070	616	2	24.8193
1074	536	2	23.1517
1078	559	2	23.6432
1082	619	2	24.8797
1086	512	2	22.6274
1090	496	2	22.2711
1094	419	2	20.4695
1098	473	2	21.7486
1102	495	2	22.2486
1106	474	2	21.7715
1110	427	2	20.664
1114	366	2	19.1311
1118	406	2	20.1494
1122	397	2	19.9249
1126	392	2	19.799
1130	370	2	19.2354
1134	315	2	17.7482
1138	312	2	17.6635
1142	319	2	17.8606
1146	325	2	18.0278
1150	258	2	16.0624
1154	329	2	18.1384
1158	280	2	16.7332
1162	294	2	17.1464
1166	296	2	17.2047
1170	303	2	17.4069
1174	262	2	16.1864
1178	244	2	15.6205
1182	228	2	15.0997
1186	183	2	13.5277
1190	245	2	15.6525
1194	268	2	16.3707
1198	183	2	13.5277
1202	183	2	13.5277
1206	214	2	14.6287
1210	209	2	14.4568
1214	186	2	13.6382
1218	162	2	12.7279
1222	205	2	14.3178
1226	154	2	12.4097
1230	169	2	13
1234	142	2	11.9164
1238	141	2	11.8743
1242	130	2	11.4018
1246	173	2	13.1529
1250	168	2	12.9615
1254	139	2	11.7898
1258	113	2	10.6301
1262	115	2	10.7238
1266	117	2	10.8167
1270	117	2	10.8167
1274	104	2	10.198
1278	120	2	10.9545
1282	102	2	10.0995
1286	109	2	10.4403
1290	114	2	10.6771
1294	103	2	10.1489
1298	83	2	9.11043
1302	104	2	10.198
1306	87	2	9.32738
1310	82	2	9.05539
1314	75	2	8.66025
1318	76	2	8.7178
1322	60	2	7.74597
1326	63	2	7.93725
1330	60	2	7.74597
1334	81	2	9
1338	50	2	7.07107
1342	56	2	7.48331
1346	50	2	7.07107
1350	61	2	7.81025
1354	58	2	7.61577
1358	53	2	7.28011
1362	43	2	6.55744
1366	49	2	7
1370	52	2	7.2111
1374	40	2	6.32456
1378	49	2	7
1382	36	2	6
1386	38	2	6.16441
1390	38	2	6.16441
1394	35	2	5.91608
1398	25	2	5
1402	28	2	5.2915
1406	40	2	6.32456
1410	37	2	6.08276
1414	23	2	4.79583
1418	25	2	5
1422	23	2	4.79583
1426	25	2	5
1430	22	2	4.69042
1434	17	2	4.12311
1438	21	2	4.58258
1442	17	2	4.12311
1446	17	2	4.12311
1450	13	2	3.60555
1454	14	2	3.74166
1458	16	2	4
1462	12	2	3.4641
1466	9	2	3
1470	16	2	4
1474	12	2	3.4641
1478	8	2	2.82843
1482	10	2	3.16228
1486	3	2	1.73205
1490	4	2	2
1494	10	2	3.16228
1498	12	2	3.4641
1502	3	2	1.73205
1506	4	2	2
1510	9	2	3
1514	3	2	1.73205
1518	5	2	2.23607
1522	5	2	2.23607
1526	3	2	1.73205
1530	3	2	1.73205
1534	3	2	1.73205
1538	4	2	2
1542	7	2	2.64575
1546	6	2	2.44949
1550	3	2	1.73205
1554	1	2	1
1558	2	2	1.41421
1562	1	2	1
1566	0	2	0
1570	0	2	0
1574	1	2	1
1578	1	2	1
1582	0	2	0
1586	1	2	1
1590	0	2	0
1594	0	2	0
1598	1	2	1
1602	1	2	1
1606	0	2	0
1610	0	2	0
1614	0	2	0
1618	0	2	0
1622	0	2	0
1626	0	2	0
1630	0	2	0
1634	0	2	0
1638	0	2	0
1642	0	2	0
1646	0	2	0
1650	0	2	0
1654	0	2	0
1658	0	2	0
1662	0	2	0
1666	0	2	0
1670	0	2	0
1674	0	2	0
1678	0	2	0
1682	0	2	0
1686	0	2	0
1690	0	2	0
1694	0	2	0
1698	0	2	0
1702	0	2	0
1706	0	2	0
1710	0	2	0
1714	0	2	0
1718	0	2	0
1722	0	2	0
1726	0	2	0
1730	0	2	0
1734	0	2	0
1738	0	2	0
1742	0	2	0
1746	0	2	0
1750	0	2	0
1754	0	2	0
1758	0	2	0
1762	0	2	0
1766	0	2	0
1770	0	2	0
1774	0	2	0
1778	0	2	0
1782	0	2	0
1786	0	2	0
1790	0	2	0
1794	0	2	0
1798	0	2	0
1802	0	2	0
1806	0	2	0
1810	0	2	0
1814	0	2	0
1818	0	2	0
1822	0	2	0
1826	0	2	0
1830	0	2	0
1834	0	2	0
1838	0	2	0
1842	0	2	0
1846	0	2	0
1850	0	2	0
1854	0	2	0
1858	0	2	0
1862	0	2	0
1866	0	2	0
1870	0	2	0
1874	0	2	0
1878	0	2	0
1882	0	2	0
1886	0	2	0
1890	0	2	0
1894	0	2	0
1898	0	2	0
1902	0	2	0
1906	0	2	0
1910	0	2	0
1914	0	2	0
1918	0	2	0
1922	0	2	0
1926	0	2	0
1930	0	2	0
1934	0	2	0
1938	0	2	0
1942	0	2	0
1946	0	2	0
1950	0	2	0
1954	0	2	0
1958	0	2	0
1962	0	2	0
1966	0	2	0
1970	0	2	0
1974	0	2	0
1978	0	2	0
1982	0	2	0
1986	0	2	0
1990	0	2	0
1994	0	2	0
1998	0	2	0
