# Output TH1F: H_Imp ()
# BinCenter	Content	BinHalfWidth	Error
2	60	2	7.74597
6	137	2	11.7047
10	224	2	14.9666
14	402	2	20.0499
18	419	2	20.4695
22	670	2	25.8844
26	638	2	25.2587
30	735	2	27.1109
34	912	2	30.1993
38	1051	2	32.4191
42	1182	2	34.3802
46	1195	2	34.5688
50	1327	2	36.428
54	1331	2	36.4829
58	1431	2	37.8286
62	1610	2	40.1248
66	1790	2	42.3084
70	1700	2	41.2311
74	1778	2	42.1663
78	1927	2	43.8976
82	1858	2	43.1045
86	2142	2	46.2817
90	2104	2	45.8694
94	2201	2	46.9148
98	2255	2	47.4868
102	2443	2	49.4267
106	2503	2	50.03
110	2501	2	50.01
114	2767	2	52.6023
118	2790	2	52.8205
122	2748	2	52.4214
126	2759	2	52.5262
130	2658	2	51.5558
134	2744	2	52.3832
138	3093	2	55.6147
142	3072	2	55.4256
146	3103	2	55.7046
150	3094	2	55.6237
154	3249	2	57
158	3342	2	57.81
162	3448	2	58.7197
166	3410	2	58.3952
170	3605	2	60.0417
174	3536	2	59.4643
178	3557	2	59.6406
182	3722	2	61.0082
186	3483	2	59.0169
190	3782	2	61.498
194	3648	2	60.3987
198	3832	2	61.9032
202	3805	2	61.6847
206	4177	2	64.6297
210	3811	2	61.7333
214	3944	2	62.8013
218	3905	2	62.49
222	4274	2	65.3758
226	4125	2	64.2262
230	4116	2	64.1561
234	4002	2	63.2614
238	4010	2	63.3246
242	4108	2	64.0937
246	4213	2	64.9076
250	4120	2	64.1872
254	3912	2	62.546
258	3994	2	63.1981
262	4272	2	65.3605
266	3922	2	62.6259
270	4112	2	64.1249
274	3753	2	61.2617
278	3918	2	62.5939
282	3950	2	62.849
286	3762	2	61.3351
290	3549	2	59.5735
294	3481	2	59
298	3640	2	60.3324
302	3393	2	58.2495
306	3503	2	59.1861
310	3236	2	56.8859
314	3365	2	58.0086
318	3254	2	57.0438
322	2939	2	54.2125
326	3252	2	57.0263
330	2968	2	54.4794
334	2964	2	54.4426
338	2895	2	53.8052
342	2840	2	53.2917
346	2620	2	51.1859
350	2606	2	51.049
354	2530	2	50.2991
358	2666	2	51.6333
362	2541	2	50.4083
366	2522	2	50.2195
370	2561	2	50.6063
374	2460	2	49.5984
378	2390	2	48.8876
382	2340	2	48.3735
386	2302	2	47.9792
390	2320	2	48.1664
394	2165	2	46.5296
398	2277	2	47.7179
402	2095	2	45.7712
406	2098	2	45.8039
410	2021	2	44.9555
414	2098	2	45.8039
418	1963	2	44.3058
422	2077	2	45.5741
426	1965	2	44.3283
430	2067	2	45.4643
434	2028	2	45.0333
438	1980	2	44.4972
442	2041	2	45.1774
446	2064	2	45.4313
450	2158	2	46.4543
454	1920	2	43.8178
458	1774	2	42.1189
462	1934	2	43.9773
466	1938	2	44.0227
470	1961	2	44.2832
474	1891	2	43.4856
478	1993	2	44.643
482	1972	2	44.4072
486	1866	2	43.1972
490	1905	2	43.6463
494	2054	2	45.3211
498	2085	2	45.6618
502	2016	2	44.8999
506	1866	2	43.1972
510	1882	2	43.382
514	1893	2	43.5086
518	1863	2	43.1625
522	1731	2	41.6053
526	1667	2	40.8289
530	1846	2	42.9651
534	1735	2	41.6533
538	1794	2	42.3556
542	1790	2	42.3084
546	1573	2	39.6611
550	1901	2	43.6005
554	1823	2	42.6966
558	1810	2	42.5441
562	1808	2	42.5206
566	1952	2	44.1814
570	1844	2	42.9418
574	1800	2	42.4264
578	1818	2	42.638
582	1754	2	41.8808
586	1705	2	41.2916
590	1781	2	42.2019
594	1802	2	42.45
598	1597	2	39.9625
602	1562	2	39.5221
606	1616	2	40.1995
610	1700	2	41.2311
614	1601	2	40.0125
618	1492	2	38.6264
622	1849	2	43
626	1788	2	42.2847
630	1463	2	38.2492
634	1493	2	38.6394
638	1731	2	41.6053
642	1368	2	36.9865
646	1545	2	39.3065
650	1538	2	39.2173
654	1444	2	38
658	1349	2	36.7287
662	1411	2	37.5633
666	1331	2	36.4829
670	1151	2	33.9264
674	1293	2	35.9583
678	1291	2	35.9305
682	1504	2	38.7814
686	1291	2	35.9305
690	1333	2	36.5103
694	1232	2	35.0999
698	1185	2	34.4238
702	1078	2	32.8329
706	1240	2	35.2136
710	1044	2	32.311
714	1124	2	33.5261
718	1147	2	33.8674
722	1102	2	33.1964
726	1174	2	34.2637
730	1058	2	32.5269
734	1203	2	34.6843
738	966	2	31.0805
742	1156	2	34
746	1088	2	32.9848
750	1043	2	32.2955
754	917	2	30.282
758	1052	2	32.4345
762	893	2	29.8831
766	996	2	31.5595
770	928	2	30.4631
774	1104	2	33.2265
778	1007	2	31.7333
782	944	2	30.7246
786	1032	2	32.1248
790	862	2	29.3598
794	955	2	30.9031
798	851	2	29.1719
802	966	2	31.0805
806	963	2	31.0322
810	879	2	29.6479
814	940	2	30.6594
818	827	2	28.7576
822	849	2	29.1376
826	839	2	28.9655
830	788	2	28.0713
834	863	2	29.3769
838	801	2	28.3019
842	826	2	28.7402
846	796	2	28.2135
850	836	2	28.9137
854	741	2	27.2213
858	745	2	27.2947
862	722	2	26.8701
866	727	2	26.9629
870	794	2	28.178
874	645	2	25.3969
878	714	2	26.7208
882	696	2	26.3818
886	631	2	25.1197
890	688	2	26.2298
894	689	2	26.2488
898	656	2	25.6125
902	621	2	24.9199
906	601	2	24.5153
910	566	2	23.7908
914	639	2	25.2784
918	551	2	23.4734
922	565	2	23.7697
926	543	2	23.3024
930	549	2	23.4307
934	498	2	22.3159
938	473	2	21.7486
942	489	2	22.1133
946	435	2	20.8567
950	460	2	21.4476
954	468	2	21.6333
958	431	2	20.7605
962	505	2	22.4722
966	403	2	20.0749
970	339	2	18.412
974	399	2	19.975
978	485	2	22.0227
982	486	2	22.0454
986	386	2	19.6469
990	319	2	17.8606
994	353	2	18.7883
998	307	2	17.5214
1002	315	2	17.7482
1006	364	2	19.0788
1010	341	2	18.4662
1014	330	2	18.1659
1018	313	2	17.6918
1022	318	2	17.8326
1026	281	2	16.7631
1030	250	2	15.8114
1034	302	2	17.3781
1038	272	2	16.4924
1042	285	2	16.8819
1046	310	2	17.6068
1050	209	2	14.4568
1054	245	2	15.6525
1058	226	2	15.0333
1062	195	2	13.9642
1066	176	2	13.2665
1070	212	2	14.5602
1074	196	2	14
1078	203	2	14.2478
1082	245	2	15.6525
1086	208	2	14.4222
1090	190	2	13.784
1094	135	2	11.619
1098	163	2	12.7671
1102	168	2	12.9615
1106	160	2	12.6491
1110	126	2	11.225
1114	132	2	11.4891
1118	129	2	11.3578
1122	139	2	11.7898
1126	134	2	11.5758
1130	109	2	10.4403
1134	98	2	9.89949
1138	94	2	9.69536
1142	104	2	10.198
1146	100	2	10
1150	67	2	8.18535
1154	98	2	9.89949
1158	75	2	8.66025
1162	90	2	9.48683
1166	93	2	9.64365
1170	96	2	9.79796
1174	89	2	9.43398
1178	68	2	8.24621
1182	60	2	7.74597
1186	52	2	7.2111
1190	72	2	8.48528
1194	69	2	8.30662
1198	48	2	6.9282
1202	46	2	6.78233
1206	45	2	6.7082
1210	48	2	6.9282
1214	38	2	6.16441
1218	38	2	6.16441
1222	52	2	7.2111
1226	35	2	5.91608
1230	38	2	6.16441
1234	31	2	5.56776
1238	29	2	5.38516
1242	21	2	4.58258
1246	35	2	5.91608
1250	30	2	5.47723
1254	23	2	4.79583
1258	21	2	4.58258
1262	20	2	4.47214
1266	22	2	4.69042
1270	17	2	4.12311
1274	19	2	4.3589
1278	22	2	4.69042
1282	13	2	3.60555
1286	24	2	4.89898
1290	21	2	4.58258
1294	17	2	4.12311
1298	11	2	3.31662
1302	14	2	3.74166
1306	13	2	3.60555
1310	9	2	3
1314	10	2	3.16228
1318	9	2	3
1322	6	2	2.44949
1326	8	2	2.82843
1330	3	2	1.73205
1334	8	2	2.82843
1338	4	2	2
1342	3	2	1.73205
1346	6	2	2.44949
1350	7	2	2.64575
1354	3	2	1.73205
1358	4	2	2
1362	3	2	1.73205
1366	3	2	1.73205
1370	7	2	2.64575
1374	4	2	2
1378	4	2	2
1382	4	2	2
1386	0	2	0
1390	1	2	1
1394	2	2	1.41421
1398	0	2	0
1402	1	2	1
1406	0	2	0
1410	0	2	0
1414	2	2	1.41421
1418	0	2	0
1422	0	2	0
1426	1	2	1
1430	1	2	1
1434	0	2	0
1438	1	2	1
1442	0	2	0
1446	0	2	0
1450	0	2	0
1454	0	2	0
1458	0	2	0
1462	0	2	0
1466	0	2	0
1470	0	2	0
1474	0	2	0
1478	0	2	0
1482	0	2	0
1486	0	2	0
1490	0	2	0
1494	0	2	0
1498	0	2	0
1502	0	2	0
1506	0	2	0
1510	0	2	0
1514	0	2	0
1518	0	2	0
1522	0	2	0
1526	0	2	0
1530	0	2	0
1534	0	2	0
1538	0	2	0
1542	0	2	0
1546	0	2	0
1550	0	2	0
1554	0	2	0
1558	0	2	0
1562	0	2	0
1566	0	2	0
1570	0	2	0
1574	0	2	0
1578	0	2	0
1582	0	2	0
1586	0	2	0
1590	0	2	0
1594	0	2	0
1598	0	2	0
1602	0	2	0
1606	0	2	0
1610	0	2	0
1614	0	2	0
1618	0	2	0
1622	0	2	0
1626	0	2	0
1630	0	2	0
1634	0	2	0
1638	0	2	0
1642	0	2	0
1646	0	2	0
1650	0	2	0
1654	0	2	0
1658	0	2	0
1662	0	2	0
1666	0	2	0
1670	0	2	0
1674	0	2	0
1678	0	2	0
1682	0	2	0
1686	0	2	0
1690	0	2	0
1694	0	2	0
1698	0	2	0
1702	0	2	0
1706	0	2	0
1710	0	2	0
1714	0	2	0
1718	0	2	0
1722	0	2	0
1726	0	2	0
1730	0	2	0
1734	0	2	0
1738	0	2	0
1742	0	2	0
1746	0	2	0
1750	0	2	0
1754	0	2	0
1758	0	2	0
1762	0	2	0
1766	0	2	0
1770	0	2	0
1774	0	2	0
1778	0	2	0
1782	0	2	0
1786	0	2	0
1790	0	2	0
1794	0	2	0
1798	0	2	0
1802	0	2	0
1806	0	2	0
1810	0	2	0
1814	0	2	0
1818	0	2	0
1822	0	2	0
1826	0	2	0
1830	0	2	0
1834	0	2	0
1838	0	2	0
1842	0	2	0
1846	0	2	0
1850	0	2	0
1854	0	2	0
1858	0	2	0
1862	0	2	0
1866	0	2	0
1870	0	2	0
1874	0	2	0
1878	0	2	0
1882	0	2	0
1886	0	2	0
1890	0	2	0
1894	0	2	0
1898	0	2	0
1902	0	2	0
1906	0	2	0
1910	0	2	0
1914	0	2	0
1918	0	2	0
1922	0	2	0
1926	0	2	0
1930	0	2	0
1934	0	2	0
1938	0	2	0
1942	0	2	0
1946	0	2	0
1950	0	2	0
1954	0	2	0
1958	0	2	0
1962	0	2	0
1966	0	2	0
1970	0	2	0
1974	0	2	0
1978	0	2	0
1982	0	2	0
1986	0	2	0
1990	0	2	0
1994	0	2	0
1998	0	2	0
