# Output TH1F: H_Ntel ()
# BinCenter	Content	BinHalfWidth	Error
0.5	0	0.5	0
1.5	0	0.5	0
2.5	347220	0.5	589.254
3.5	196723	0.5	443.535
4.5	144986	0.5	380.77
5.5	98766	0.5	314.271
6.5	78987	0.5	281.046
7.5	62540	0.5	250.08
8.5	47782	0.5	218.591
9.5	36896	0.5	192.083
10.5	30851	0.5	175.645
11.5	22328	0.5	149.426
12.5	17445	0.5	132.08
13.5	14525	0.5	120.52
14.5	11759	0.5	108.439
15.5	9054	0.5	95.1525
16.5	7255	0.5	85.1763
17.5	6309	0.5	79.4292
18.5	5363	0.5	73.2325
19.5	4612	0.5	67.9117
20.5	4013	0.5	63.3482
21.5	3420	0.5	58.4808
22.5	2634	0.5	51.3225
23.5	2238	0.5	47.3075
24.5	1838	0.5	42.8719
25.5	1615	0.5	40.1871
26.5	1322	0.5	36.3593
27.5	1169	0.5	34.1906
28.5	936	0.5	30.5941
29.5	779	0.5	27.9106
30.5	479	0.5	21.8861
31.5	372	0.5	19.2873
32.5	270	0.5	16.4317
33.5	192	0.5	13.8564
34.5	170	0.5	13.0384
35.5	124	0.5	11.1355
36.5	85	0.5	9.21954
37.5	59	0.5	7.68115
38.5	51	0.5	7.14143
39.5	36	0.5	6
40.5	29	0.5	5.38516
41.5	22	0.5	4.69042
42.5	14	0.5	3.74166
43.5	12	0.5	3.4641
44.5	10	0.5	3.16228
45.5	3	0.5	1.73205
46.5	7	0.5	2.64575
47.5	4	0.5	2
48.5	3	0.5	1.73205
49.5	0	0.5	0
50.5	0	0.5	0
51.5	1	0.5	1
52.5	0	0.5	0
53.5	0	0.5	0
54.5	0	0.5	0
