# Output TH1F: Energy_loss_Ncut12 (Impact method - Event loss vs energy, Ntel cut = 12)
# BinCenter	Content	BinHalfWidth	Error
0.0604567	100	0.0103379	10
0.0853973	100	0.0146027	10
0.120627	100	0.0206269	10
0.17039	99.9617	0.0291362	9.99808
0.240682	98.6138	0.041156	9.93045
0.339973	94.0017	0.0581344	9.69545
0.480224	91.3769	0.0821171	9.55913
0.678335	89.4654	0.115993	9.45862
0.958173	86.3871	0.163845	9.29446
1.35346	82.7044	0.231437	9.09419
1.91181	77.272	0.326914	8.79045
2.7005	73.6646	0.461778	8.58281
3.81456	71.368	0.652279	8.44796
5.3882	69.9576	0.921369	8.36406
7.61104	67.6181	1.30147	8.22302
10.7509	65.7053	1.83837	8.10588
15.186	62.5146	2.59677	7.90662
21.4508	64.2673	3.66804	8.01669
30.3001	61.3051	5.18124	7.82976
42.8	63.8725	7.31869	7.99203
60.4567	60.7055	10.3379	7.79137
85.3973	62.8353	14.6027	7.92687
120.627	60.0798	20.6269	7.75112
170.39	58.8652	29.1362	7.67237
