# Output TH1D: AR_hist_impcut800 (AR_hist)
# BinCenter	Content	BinHalfWidth	Error
0.000625	2.03718e+06	0.000625	1427.3
0.001875	1.90137e+06	0.000625	1378.9
0.003125	1.91495e+06	0.000625	1383.82
0.004375	1.77526e+06	0.000625	1332.39
0.005625	1.83346e+06	0.000625	1354.06
0.006875	1.92606e+06	0.000625	1387.83
0.008125	1.66109e+06	0.000625	1288.83
0.009375	1.76556e+06	0.000625	1328.74
0.010625	1.35413e+06	0.000625	1163.67
0.011875	1.40458e+06	0.000625	1185.15
0.013125	1.04769e+06	0.000625	1023.57
0.014375	1.04516e+06	0.000625	1022.33
0.015625	920807	0.000625	959.587
0.016875	920505	0.000625	959.43
0.018125	835948	0.000625	914.302
0.019375	775444	0.000625	880.593
0.020625	574115	0.000625	757.704
0.021875	582052	0.000625	762.924
0.023125	523061	0.000625	723.229
0.024375	334307	0.000625	578.193
0.025625	268312	0.000625	517.988
0.026875	260570	0.000625	510.461
0.028125	176556	0.000625	420.186
0.029375	203718	0.000625	451.352
0.030625	178773	0.000625	422.816
0.031875	127823	0.000625	357.524
0.033125	123000	0.000625	350.713
0.034375	62967.5	0.000625	250.933
0.035625	78628.1	0.000625	280.407
0.036875	93227	0.000625	305.331
0.038125	53434.3	0.000625	231.159
0.039375	54971.6	0.000625	234.46
0.040625	43877.8	0.000625	209.47
0.041875	39527.4	0.000625	198.815
0.043125	29524.4	0.000625	171.827
0.044375	20084.9	0.000625	141.721
0.045625	16744	0.000625	129.399
0.046875	24446.2	0.000625	156.353
0.048125	10582.8	0.000625	102.873
0.049375	12893.6	0.000625	113.55
0.050625	15090.2	0.000625	122.842
0.051875	2454.44	0.000625	49.5423
0.053125	11983.4	0.000625	109.469
0.054375	2341.59	0.000625	48.39
0.055625	4577.94	0.000625	67.6605
0.056875	6715.99	0.000625	81.9511
0.058125	2190.52	0.000625	46.803
0.059375	2144.4	0.000625	46.3077
0.060625	2100.19	0.000625	45.8278
0.061875	0	0.000625	0
0.063125	2017.01	0.000625	44.9112
0.064375	3955.7	0.000625	62.8943
0.065625	3880.35	0.000625	62.2924
0.066875	0	0.000625	0
0.068125	0	0.000625	0
0.069375	0	0.000625	0
0.070625	0	0.000625	0
0.071875	1771.46	0.000625	42.0888
0.073125	0	0.000625	0
0.074375	1711.92	0.000625	41.3753
0.075625	0	0.000625	0
0.076875	0	0.000625	0
0.078125	0	0.000625	0
0.079375	0	0.000625	0
0.080625	0	0.000625	0
0.081875	0	0.000625	0
0.083125	1531.72	0.000625	39.1372
0.084375	0	0.000625	0
0.085625	1487	0.000625	38.5616
0.086875	0	0.000625	0
0.088125	0	0.000625	0
0.089375	1424.6	0.000625	37.7439
0.090625	0	0.000625	0
0.091875	1385.84	0.000625	37.2269
0.093125	0	0.000625	0
0.094375	0	0.000625	0
0.095625	0	0.000625	0
0.096875	0	0.000625	0
0.098125	1297.57	0.000625	36.0218
0.099375	0	0.000625	0
0.100625	0	0.000625	0
0.101875	0	0.000625	0
0.103125	0	0.000625	0
0.104375	1219.87	0.000625	34.9266
0.105625	0	0.000625	0
0.106875	0	0.000625	0
0.108125	0	0.000625	0
0.109375	0	0.000625	0
0.110625	0	0.000625	0
0.111875	1138.09	0.000625	33.7356
0.113125	0	0.000625	0
0.114375	0	0.000625	0
0.115625	0	0.000625	0
0.116875	0	0.000625	0
0.118125	0	0.000625	0
0.119375	1066.59	0.000625	32.6587
0.120625	0	0.000625	0
0.121875	0	0.000625	0
0.123125	1034.1	0.000625	32.1575
0.124375	0	0.000625	0
0.125625	0	0.000625	0
0.126875	0	0.000625	0
0.128125	0	0.000625	0
0.129375	0	0.000625	0
0.130625	0	0.000625	0
0.131875	0	0.000625	0
0.133125	0	0.000625	0
0.134375	0	0.000625	0
0.135625	0	0.000625	0
0.136875	0	0.000625	0
0.138125	0	0.000625	0
0.139375	0	0.000625	0
0.140625	0	0.000625	0
0.141875	0	0.000625	0
0.143125	0	0.000625	0
0.144375	0	0.000625	0
0.145625	0	0.000625	0
0.146875	0	0.000625	0
0.148125	0	0.000625	0
0.149375	0	0.000625	0
0.150625	0	0.000625	0
0.151875	0	0.000625	0
0.153125	0	0.000625	0
0.154375	824.771	0.000625	28.7188
0.155625	1636.29	0.000625	40.4511
0.156875	0	0.000625	0
0.158125	0	0.000625	0
0.159375	0	0.000625	0
0.160625	0	0.000625	0
0.161875	0	0.000625	0
0.163125	0	0.000625	0
0.164375	0	0.000625	0
0.165625	0	0.000625	0
0.166875	0	0.000625	0
0.168125	0	0.000625	0
0.169375	0	0.000625	0
0.170625	0	0.000625	0
0.171875	0	0.000625	0
0.173125	0	0.000625	0
0.174375	0	0.000625	0
0.175625	0	0.000625	0
0.176875	0	0.000625	0
0.178125	0	0.000625	0
0.179375	709.82	0.000625	26.6424
0.180625	0	0.000625	0
0.181875	0	0.000625	0
0.183125	0	0.000625	0
0.184375	0	0.000625	0
0.185625	1371.84	0.000625	37.0384
0.186875	0	0.000625	0
0.188125	0	0.000625	0
0.189375	0	0.000625	0
0.190625	0	0.000625	0
0.191875	0	0.000625	0
0.193125	0	0.000625	0
0.194375	0	0.000625	0
0.195625	650.857	0.000625	25.5119
0.196875	0	0.000625	0
0.198125	0	0.000625	0
0.199375	0	0.000625	0
0.200625	0	0.000625	0
0.201875	0	0.000625	0
0.203125	0	0.000625	0
0.204375	0	0.000625	0
0.205625	0	0.000625	0
0.206875	0	0.000625	0
0.208125	0	0.000625	0
0.209375	0	0.000625	0
0.210625	0	0.000625	0
0.211875	0	0.000625	0
0.213125	0	0.000625	0
0.214375	593.931	0.000625	24.3707
0.215625	590.488	0.000625	24.3
0.216875	587.085	0.000625	24.2298
0.218125	0	0.000625	0
0.219375	580.394	0.000625	24.0914
0.220625	0	0.000625	0
0.221875	0	0.000625	0
0.223125	0	0.000625	0
0.224375	0	0.000625	0
0.225625	0	0.000625	0
0.226875	0	0.000625	0
0.228125	0	0.000625	0
0.229375	0	0.000625	0
0.230625	0	0.000625	0
0.231875	0	0.000625	0
0.233125	0	0.000625	0
0.234375	0	0.000625	0
0.235625	0	0.000625	0
0.236875	0	0.000625	0
0.238125	0	0.000625	0
0.239375	0	0.000625	0
0.240625	0	0.000625	0
0.241875	0	0.000625	0
0.243125	0	0.000625	0
0.244375	0	0.000625	0
0.245625	0	0.000625	0
0.246875	0	0.000625	0
0.248125	0	0.000625	0
0.249375	0	0.000625	0
